G04*
G04 #@! TF.GenerationSoftware,Altium Limited,Altium Designer,20.0.2 (26)*
G04*
G04 Layer_Physical_Order=2*
G04 Layer_Color=16711680*
%FSLAX44Y44*%
%MOMM*%
G71*
G01*
G75*
%ADD22C,1.6000*%
%ADD23R,1.6000X1.6000*%
%ADD24C,1.2000*%
%ADD25R,1.2000X1.2000*%
G36*
X454660Y367030D02*
X454660Y264160D01*
X449580Y259080D01*
X259080D01*
Y372110D01*
X449580D01*
X454660Y367030D01*
D02*
G37*
%LPC*%
G36*
X281590Y361600D02*
X264510D01*
Y344520D01*
X281590D01*
Y361600D01*
D02*
G37*
G36*
X274320Y336106D02*
Y328930D01*
X281497D01*
X281370Y329889D01*
X280510Y331967D01*
X279141Y333751D01*
X277357Y335120D01*
X275279Y335980D01*
X274320Y336106D01*
D02*
G37*
G36*
X271780D02*
X270821Y335980D01*
X268743Y335120D01*
X266959Y333751D01*
X265590Y331967D01*
X264730Y329889D01*
X264604Y328930D01*
X271780D01*
Y336106D01*
D02*
G37*
G36*
X452500Y340740D02*
X431420D01*
Y319660D01*
X452500D01*
Y340740D01*
D02*
G37*
G36*
X281497Y326390D02*
X274320D01*
Y319214D01*
X275279Y319340D01*
X277357Y320200D01*
X279141Y321569D01*
X280510Y323353D01*
X281370Y325431D01*
X281497Y326390D01*
D02*
G37*
G36*
X271780D02*
X264604D01*
X264730Y325431D01*
X265590Y323353D01*
X266959Y321569D01*
X268743Y320200D01*
X270821Y319340D01*
X271780Y319214D01*
Y326390D01*
D02*
G37*
G36*
X441960Y315431D02*
X439208Y315069D01*
X436645Y314007D01*
X434443Y312317D01*
X432753Y310116D01*
X431691Y307551D01*
X431329Y304800D01*
X431691Y302048D01*
X432753Y299485D01*
X434443Y297283D01*
X436645Y295593D01*
X439208Y294531D01*
X441960Y294169D01*
X444711Y294531D01*
X447276Y295593D01*
X449477Y297283D01*
X451167Y299485D01*
X452229Y302048D01*
X452591Y304800D01*
X452229Y307551D01*
X451167Y310116D01*
X449477Y312317D01*
X447276Y314007D01*
X444711Y315069D01*
X441960Y315431D01*
D02*
G37*
G36*
X273050Y310874D02*
X270821Y310580D01*
X268743Y309720D01*
X266959Y308351D01*
X265590Y306567D01*
X264730Y304489D01*
X264436Y302260D01*
X264730Y300031D01*
X265590Y297953D01*
X266959Y296169D01*
X268743Y294800D01*
X270821Y293940D01*
X273050Y293646D01*
X275279Y293940D01*
X277357Y294800D01*
X279141Y296169D01*
X280510Y297953D01*
X281370Y300031D01*
X281664Y302260D01*
X281370Y304489D01*
X280510Y306567D01*
X279141Y308351D01*
X277357Y309720D01*
X275279Y310580D01*
X273050Y310874D01*
D02*
G37*
G36*
Y285474D02*
X270821Y285180D01*
X268743Y284320D01*
X266959Y282951D01*
X265590Y281167D01*
X264730Y279089D01*
X264436Y276860D01*
X264730Y274631D01*
X265590Y272553D01*
X266959Y270769D01*
X268743Y269400D01*
X270821Y268540D01*
X273050Y268246D01*
X275279Y268540D01*
X277357Y269400D01*
X279141Y270769D01*
X280510Y272553D01*
X281370Y274631D01*
X281664Y276860D01*
X281370Y279089D01*
X280510Y281167D01*
X279141Y282951D01*
X277357Y284320D01*
X275279Y285180D01*
X273050Y285474D01*
D02*
G37*
%LPD*%
D22*
X441960Y304800D02*
D03*
D23*
Y330200D02*
D03*
D24*
X273050Y276860D02*
D03*
Y302260D02*
D03*
Y327660D02*
D03*
D25*
Y353060D02*
D03*
M02*
